0.60909,0,0,0,0
0.49563,0,0,0,0
0.80887,0,0,0,0
0.85304,0,0,0,0
0.93135,0,0,0,0
0.91706,0,0,0,0
0.77736,0,0,0,0
0.83381,0,0,0,0
0.45106,0,0,0,0
0.30595,0,0,0,0
0.3121,0,0,0,0
0.24223,0,0,0,0
0.61043,0,0,0,0
0.42234,0,0,0,0
0.7152,0,0,0,0
0.57872,0,0,0,0
0.52405,0,0,0,0
0.40924,0,0,0,0
